…
Controlling for poverty, percentage of black students, total enrollment, and academic performance yields a statistically significant negative relationship for poverty and a positive for math performance on PTA/PA funding, and a positive relationship for total enrollment on state funding.

Parental Involvement

## # A tibble: 109 x 2
## # Groups:   Q39_4 [109]
##    Q39_4                                     n
##    <chr>                                 <int>
##  1 0                                      1155
##  2 adult learning arts class through CBO     1
##  3 after school art program for adults       1
##  4 after-school workshops                    1
##  5 Arranging our talent show                 1
##  6 Art class                                 1
##  7 Art focused workshops for parents         1
##  8 Art Parent Workshop                       1
##  9 Art parent Workshops                      1
## 10 Art to Remember                           1
## #  with 99 more rows
…
